ParteE/simulation/qsim/ConexionMasterSlave.msim.vcd
$comment
	File created using the following command:
		vcd file ConexionMasterSlave.msim.vcd -direction
$end
$date
	Wed Nov 06 19:51:14 2024
$end
$version
	ModelSim Version 10.1d
$end
$timescale
	1ps
$end
$scope module ConexionMasterSlave_vlg_vec_tst $end
$var reg 1 ! fin_dato $end
$var reg 1 " fin_dir $end
$var reg 1 # reset $end
$var reg 1 $ SCL $end
$var reg 1 % SDA $end
$var reg 1 & soy $end
$var wire 1 ' ACK $end
$var wire 1 ( Hab_Data $end
$var wire 1 ) Hab_dir $end
$var wire 1 * sampler $end
$scope module i1 $end
$var wire 1 + gnd $end
$var wire 1 , vcc $end
$var wire 1 - unknown $end
$var tri1 1 . devclrn $end
$var tri1 1 / devpor $end
$var tri1 1 0 devoe $end
$var wire 1 1 fin_dir~input_o $end
$var wire 1 2 SCL~input_o $end
$var wire 1 3 SDA~input_o $end
$var wire 1 4 SCL~inputclkctrl_outclk $end
$var wire 1 5 Hab_dir~output_o $end
$var wire 1 6 Hab_Data~output_o $end
$var wire 1 7 ACK~output_o $end
$var wire 1 8 reset~input_o $end
$var wire 1 9 soy~input_o $end
$var wire 1 : reg_fstate.Idle~0_combout $end
$var wire 1 ; fin_dato~input_o $end
$var wire 1 < reg_fstate.WriteOrRead~0_combout $end
$var wire 1 = fstate.WriteOrRead~q $end
$var wire 1 > reg_fstate.WaitConec~0_combout $end
$var wire 1 ? fstate.WaitConec~q $end
$var wire 1 @ reg_fstate.SaveData~0_combout $end
$var wire 1 A fstate.SaveData~q $end
$var wire 1 B reg_fstate.Idle~1_combout $end
$var wire 1 C reg_fstate.Idle~2_combout $end
$var wire 1 D fstate.Idle~q $end
$var wire 1 E reg_fstate.Start~0_combout $end
$var wire 1 F fstate.Start~q $end
$var wire 1 G reg_fstate.DirCheck~0_combout $end
$var wire 1 H fstate.DirCheck~q $end
$var wire 1 I Hab_dir~0_combout $end
$var wire 1 J Hab_Data~0_combout $end
$var wire 1 K ACK~0_combout $end
$upscope $end
$upscope $end
$enddefinitions $end
#0
$dumpvars
0!
0"
0#
0$
1%
0&
0'
0(
0)
x*
0+
1,
x-
1.
1/
10
01
02
13
04
05
06
07
08
09
0:
0;
0<
0=
0>
0?
0@
0A
1B
0C
0D
0E
0F
0G
0H
0I
0J
0K
$end
#20000
1$
12
14
0*
#40000
0$
02
04
1*
#60000
1$
12
14
0*
#70000
0%
03
1*
1E
0B
1C
#80000
0$
02
04
0*
#90000
1!
1;
1*
#100000
1$
12
14
0*
1F
1D
1G
0E
#120000
0!
0$
0;
02
04
1*
#130000
1&
19
0*
#140000
1$
12
14
1*
1H
0F
1I
15
1)
#160000
0&
0$
09
02
04
0*
#170000
1"
11
1*
0G
1:
0C
#180000
1$
12
14
0*
0H
0D
0:
1E
0I
1C
05
0)
#200000
0"
0$
01
02
04
1*
#210000
1%
13
0*
0E
1B
0C
#220000
1$
12
14
1*
#240000
0$
02
04
0*
#260000
1$
12
14
1*
#280000
0$
02
04
0*
#300000
1$
12
14
1*
#320000
0%
0$
03
02
04
0*
1E
0B
1C
#340000
1$
12
14
1*
1F
1D
1G
0E
#360000
0$
02
04
0*
#380000
1$
12
14
1*
1H
0F
1I
15
1)
#400000
1&
1"
0$
19
11
02
04
0*
1<
0G
#420000
1$
12
14
1*
0H
1=
0<
1>
0I
05
0)
#440000
0&
0"
0$
09
01
02
04
0*
#460000
1%
1$
13
12
14
1*
1?
0=
1@
0>
1K
17
1'
#480000
0$
02
04
0*
#500000
1$
12
14
1*
1A
0?
1J
0K
16
07
1(
0'
#520000
0$
02
04
0*
#540000
1$
12
14
1*
#560000
0$
02
04
0*
#580000
1$
12
14
1*
#590000
1"
11
0*
#600000
0$
02
04
1*
#620000
1$
12
14
0*
#640000
0$
02
04
1*
#650000
0%
03
0*
#660000
1$
12
14
1*
#680000
0$
02
04
0*
#690000
1&
19
1*
#700000
1$
12
14
0*
#720000
0"
0$
01
02
04
1*
#740000
1$
12
14
0*
#760000
0&
0$
09
02
04
1*
#770000
1!
1;
0*
1B
0@
0C
#780000
1$
12
14
1*
0D
0A
1E
0B
0J
1C
06
0(
#800000
0!
0$
0;
02
04
0*
#820000
1$
12
14
1*
1F
1D
1G
0E
#840000
0$
02
04
0*
#860000
1$
12
14
1*
1H
0F
1I
15
1)
#880000
0$
02
04
0*
#890000
1%
1"
13
11
1*
0G
1:
0C
#900000
1$
12
14
0*
0H
0D
0:
1B
0I
05
0)
#920000
0$
02
04
1*
#940000
1$
12
14
0*
#960000
0$
02
04
1*
#980000
0"
1$
01
12
14
0*
