ParteC/simulation/qsim/Restador4Bit.msim.vcd
$comment
	File created using the following command:
		vcd file Restador4Bit.msim.vcd -direction
$end
$date
	Sat Nov 02 20:08:39 2024
$end
$version
	ModelSim Version 10.1d
$end
$timescale
	1ps
$end
$scope module Block2_vlg_vec_tst $end
$var reg 1 ! a1 $end
$var reg 1 " a2 $end
$var reg 1 # a3 $end
$var reg 1 $ a4 $end
$var reg 1 % b1 $end
$var reg 1 & b2 $end
$var reg 1 ' b3 $end
$var reg 1 ( b4 $end
$var reg 1 ) bin1 $end
$var reg 1 * clk $end
$var wire 1 + Bout $end
$var wire 1 , res1 $end
$var wire 1 - res2 $end
$var wire 1 . res3 $end
$var wire 1 / res4 $end
$var wire 1 0 Z $end
$var wire 1 1 sampler $end
$scope module i1 $end
$var wire 1 2 gnd $end
$var wire 1 3 vcc $end
$var wire 1 4 unknown $end
$var tri1 1 5 devclrn $end
$var tri1 1 6 devpor $end
$var tri1 1 7 devoe $end
$var wire 1 8 res1~output_o $end
$var wire 1 9 res2~output_o $end
$var wire 1 : res3~output_o $end
$var wire 1 ; res4~output_o $end
$var wire 1 < Bout~output_o $end
$var wire 1 = Z~output_o $end
$var wire 1 > clk~input_o $end
$var wire 1 ? clk~inputclkctrl_outclk $end
$var wire 1 @ a1~input_o $end
$var wire 1 A b2v_inst11|Q~feeder_combout $end
$var wire 1 B b2v_inst11|Q~q $end
$var wire 1 C b1~input_o $end
$var wire 1 D b2v_inst12|Q~q $end
$var wire 1 E bin1~input_o $end
$var wire 1 F b2v_inst13|Q~feeder_combout $end
$var wire 1 G b2v_inst13|Q~q $end
$var wire 1 H b2v_inst10|res~0_combout $end
$var wire 1 I b2v_inst14|Q~q $end
$var wire 1 J a2~input_o $end
$var wire 1 K b2v_inst21|Q~feeder_combout $end
$var wire 1 L b2v_inst21|Q~q $end
$var wire 1 M b2~input_o $end
$var wire 1 N b2v_inst22|Q~feeder_combout $end
$var wire 1 O b2v_inst22|Q~q $end
$var wire 1 P b2v_inst10|bout~0_combout $end
$var wire 1 Q b2v_inst20|res~combout $end
$var wire 1 R b2v_inst24|Q~q $end
$var wire 1 S b3~input_o $end
$var wire 1 T b2v_inst32|Q~q $end
$var wire 1 U a3~input_o $end
$var wire 1 V b2v_inst31|Q~q $end
$var wire 1 W b2v_inst20|bout~0_combout $end
$var wire 1 X b2v_inst30|res~combout $end
$var wire 1 Y b2v_inst34|Q~q $end
$var wire 1 Z a4~input_o $end
$var wire 1 [ b2v_inst41|Q~feeder_combout $end
$var wire 1 \ b2v_inst41|Q~q $end
$var wire 1 ] b4~input_o $end
$var wire 1 ^ b2v_inst42|Q~feeder_combout $end
$var wire 1 _ b2v_inst42|Q~q $end
$var wire 1 ` b2v_inst40|res~0_combout $end
$var wire 1 a b2v_inst40|res~combout $end
$var wire 1 b b2v_inst44|Q~q $end
$var wire 1 c b2v_inst30|bout~0_combout $end
$var wire 1 d b2v_inst40|bout~0_combout $end
$var wire 1 e b2v_inst45|Q~q $end
$var wire 1 f SYNTHESIZED_WIRE_21~0_combout $end
$var wire 1 g b2v_instZ|Q~q $end
$upscope $end
$upscope $end
$enddefinitions $end
#0
$dumpvars
0!
0"
0#
0$
0%
0&
0'
0(
0)
0*
0+
0,
0-
0.
0/
00
x1
02
13
x4
15
16
17
08
09
0:
0;
0<
0=
0>
0?
0@
0A
0B
0C
0D
0E
0F
0G
0H
0I
0J
0K
0L
0M
0N
0O
0P
0Q
0R
0S
0T
0U
0V
0W
0X
0Y
0Z
0[
0\
0]
0^
0_
0`
0a
0b
0c
0d
0e
1f
0g
$end
#10000
1*
1>
1?
01
1g
1=
10
#20000
1!
1"
1#
1$
0*
1@
1J
1U
1Z
0>
0?
11
1A
1K
1[
#30000
1*
1>
1?
01
1\
1V
1L
1B
1`
1X
1Q
1H
1a
0f
#40000
1%
1&
1'
1(
0!
0"
0#
0$
0*
1C
1M
1S
1]
0@
0J
0U
0Z
0>
0?
11
1N
1^
0A
0K
0[
#50000
1*
1>
1?
01
1_
0\
0V
1T
1O
0L
1D
0B
0g
1b
1Y
1R
1I
1d
1c
0a
1W
1P
0=
1;
1:
19
18
00
1/
1.
1-
1,
0X
0Q
#60000
1!
1"
1#
1$
0*
1@
1J
1U
1Z
0>
0?
11
1A
1K
1[
#70000
1*
1>
1?
01
1\
1V
1L
1B
1e
0b
0Y
0R
0`
1X
1Q
0P
0H
1<
0;
0:
09
1+
0/
0.
0-
1a
0W
0Q
0c
0a
0X
0d
1f
#80000
1)
0%
0&
0'
0(
0!
0"
0#
0$
0*
1E
0C
0M
0S
0]
0@
0J
0U
0Z
0>
0?
11
1F
0N
0^
0A
0K
0[
#90000
1*
1>
1?
01
0_
0\
0V
0T
0O
0L
1G
0D
0B
1g
0e
0I
1P
1H
1=
0<
08
10
0+
0,
1W
1Q
0f
1c
1a
1X
1d
#100000
1!
1"
1#
1$
0*
1@
1J
1U
1Z
0>
0?
11
1A
1K
1[
#110000
1*
1>
1?
01
1\
1V
1L
1B
0g
1e
1b
1Y
1R
1I
0d
1`
0c
0a
0X
0W
0Q
0P
0H
0=
1<
1;
1:
19
18
00
1+
1/
1.
1-
1,
1a
1f
1X
1Q
0f
#120000
1%
1&
1'
1(
0!
0"
0#
0$
0*
1C
1M
1S
1]
0@
0J
0U
0Z
0>
0?
11
1N
1^
0A
0K
0[
#130000
1*
1>
1?
01
1_
0\
0V
1T
1O
0L
1D
0B
0e
0I
1d
1c
0a
1W
1P
0<
08
0+
0,
0X
0Q
1f
#140000
1!
1"
1#
1$
0*
1@
1J
1U
1Z
0>
0?
11
1A
1K
1[
#150000
1*
1>
1?
01
1\
1V
1L
1B
1g
1e
0b
0Y
0R
0`
1X
1Q
1H
1=
1<
0;
0:
09
10
1+
0/
0.
0-
1a
0f
#160000
0)
0%
0&
0'
0(
0!
0"
0#
0$
0*
0E
0C
0M
0S
0]
0@
0J
0U
0Z
0>
0?
11
0F
0N
0^
0A
0K
0[
#170000
1*
1>
1?
01
0_
0\
0V
0T
0O
0L
0G
0D
0B
0g
1b
1Y
1R
1I
0P
0H
0=
1;
1:
19
18
00
1/
1.
1-
1,
0W
0Q
0c
0a
0X
0d
1f
#180000
1!
1#
1$
0*
1@
1U
1Z
0>
0?
11
1A
1[
#190000
1*
1>
1?
01
1\
1V
1B
1g
0e
0b
0Y
0R
0I
1`
1X
1H
1=
0<
0;
0:
09
08
10
0+
0/
0.
0-
0,
1a
0f
#200000
1%
1&
1'
1(
0!
0#
0$
0*
1C
1M
1S
1]
0@
0U
0Z
0>
0?
11
1N
1^
0A
0[
#210000
1*
1>
1?
01
1_
0\
0V
1T
1O
1D
0B
0g
1b
1Y
1I
1d
1c
0a
1W
1Q
1P
0=
1;
1:
18
00
1/
1.
1,
0X
0Q
#220000
1!
1#
1$
0*
1@
1U
1Z
0>
0?
11
1A
1[
#230000
1*
1>
1?
01
1\
1V
1B
1e
0b
0Y
0`
1X
0P
0H
1<
0;
0:
1+
0/
0.
1a
1Q
#240000
1)
0%
0&
0'
0(
0!
0#
0$
0*
1E
0C
0M
0S
0]
0@
0U
0Z
0>
0?
11
1F
0N
0^
0A
0[
#250000
1*
1>
1?
01
0_
0\
0V
0T
0O
1G
0D
0B
1b
1Y
1R
0I
0W
0Q
1P
1H
1;
1:
19
08
1/
1.
1-
0,
0c
0a
0X
1W
1Q
0d
1c
1a
1X
1d
#260000
1!
1#
1$
0*
1@
1U
1Z
0>
0?
11
1A
1[
#270000
1*
1>
1?
01
1\
1V
1B
1I
0d
1`
0c
0a
0X
0P
0H
18
1,
1a
0W
0Q
1X
#280000
1%
1&
1'
1(
0!
0#
0$
0*
1C
1M
1S
1]
0@
0U
0Z
0>
0?
11
1N
1^
0A
0[
#290000
1*
1>
1?
01
1_
0\
0V
1T
1O
1D
0B
0e
0R
0I
1d
1c
0a
1W
1Q
1P
0<
09
08
0+
0-
0,
0X
0Q
1f
#300000
1!
1#
1$
0*
1@
1U
1Z
0>
0?
11
1A
1[
#310000
1*
1>
1?
01
1\
1V
1B
1g
1e
0b
0Y
0`
1X
1H
1=
1<
0;
0:
10
1+
0/
0.
1a
0f
#320000
0)
0%
0&
0'
0(
0!
0#
0$
0*
0E
0C
0M
0S
0]
0@
0U
0Z
0>
0?
11
0F
0N
0^
0A
0[
#330000
1*
1>
1?
01
0_
0\
0V
0T
0O
0G
0D
0B
0g
1b
1Y
1I
1Q
0P
0H
0=
1;
1:
18
00
1/
1.
1,
0W
0Q
0c
0a
0X
0d
1f
#340000
1"
1!
1$
0*
1J
1@
1Z
0>
0?
11
1K
1A
1[
#350000
1*
1>
1?
01
1\
1L
1B
1g
0e
0b
0Y
0I
1`
1Q
1H
1=
0<
0;
0:
08
10
0+
0/
0.
0,
1a
0f
#360000
1%
1&
1'
1(
0"
0!
0$
0*
1C
1M
1S
1]
0J
0@
0Z
0>
0?
11
1N
1^
0K
0A
0[
#370000
1*
1>
1?
01
1_
0\
1T
1O
0L
1D
0B
0g
1b
1R
1I
1d
1c
0a
1X
1W
1P
0=
1;
19
18
00
1/
1-
1,
0X
0Q
#380000
1"
1!
1$
0*
1J
1@
1Z
0>
0?
11
1K
1A
1[
#390000
1*
1>
1?
01
1\
1L
1B
1e
0b
0R
0`
1Q
0P
0H
1<
0;
09
1+
0/
0-
1a
0W
0Q
1X
#400000
1)
0%
0&
0'
0(
0"
0!
0$
0*
1E
0C
0M
0S
0]
0J
0@
0Z
0>
0?
11
1F
0N
0^
0K
0A
0[
#410000
1*
1>
1?
01
0_
0\
0T
0O
0L
1G
0D
0B
1b
1Y
0I
0c
0a
0X
1P
1H
1;
1:
08
1/
1.
0,
0d
1W
1Q
1c
1a
1X
1d
#420000
1"
1!
1$
0*
1J
1@
1Z
0>
0?
11
1K
1A
1[
#430000
1*
1>
1?
01
1\
1L
1B
1R
1I
0d
1`
0W
0Q
0P
0H
19
18
1-
1,
0c
0X
1Q
#440000
1%
1&
1'
1(
0"
0!
0$
0*
1C
1M
1S
1]
0J
0@
0Z
0>
0?
11
1N
1^
0K
0A
0[
#450000
1*
1>
1?
01
1_
0\
1T
1O
0L
1D
0B
0e
0Y
0I
1d
1c
0a
1X
1W
1P
0<
0:
08
0+
0.
0,
0X
0Q
1f
#460000
1"
1!
1$
0*
1J
1@
1Z
0>
0?
11
1K
1A
1[
#470000
1*
1>
1?
01
1\
1L
1B
1g
1e
0b
0R
0`
1Q
1H
1=
1<
0;
09
10
1+
0/
0-
1a
0f
#480000
0)
0%
0&
0'
0(
0"
0!
0$
0*
0E
0C
0M
0S
0]
0J
0@
0Z
0>
0?
11
0F
0N
0^
0K
0A
0[
#490000
1*
1>
1?
01
0_
0\
0T
0O
0L
0G
0D
0B
0g
1b
1R
1I
1X
0P
0H
0=
1;
19
18
00
1/
1-
1,
0W
0Q
0c
0a
0X
0d
1f
#500000
1#
1"
1!
1$
0*
1U
1J
1@
1Z
0>
0?
11
1K
1A
1[
#510000
1*
1>
1?
01
1\
1V
1L
1B
1g
0e
0b
0R
0I
1`
1X
1Q
1H
1=
0<
0;
09
08
10
0+
0/
0-
0,
1a
0f
#520000
1&
1'
1(
0#
0"
0!
0$
0*
1M
1S
1]
0U
0J
0@
0Z
0>
0?
11
1N
1^
0K
0A
0[
#530000
1*
1>
1?
01
1_
0\
0V
1T
1O
0L
0B
0g
1b
1Y
1R
1I
1d
1c
0a
1W
0H
0=
1;
1:
19
18
00
1/
1.
1-
1,
0X
#540000
1#
1"
1!
1$
0*
1U
1J
1@
1Z
0>
0?
11
1K
1A
1[
#550000
1*
1>
1?
01
1\
1V
1L
1B
1e
0b
0Y
0I
0`
1X
0W
0Q
1H
1<
0;
0:
08
1+
0/
0.
0,
0c
0X
0d
#560000
1)
0&
0'
0(
0#
0"
0!
0$
0*
1E
0M
0S
0]
0U
0J
0@
0Z
0>
0?
11
1F
0N
0^
0K
0A
0[
#570000
1*
1>
1?
01
0_
0\
0V
0T
0O
0L
1G
0B
0e
0R
1I
1P
0<
09
18
0+
0-
1,
1W
1Q
1c
1a
1X
1d
#580000
1#
1"
1!
1$
0*
1U
1J
1@
1Z
0>
0?
11
1K
1A
1[
#590000
1*
1>
1?
01
1\
1V
1L
1B
1e
1b
1Y
1R
0d
1`
0c
0a
0X
0W
0Q
0P
0H
1<
1;
1:
19
1+
1/
1.
1-
1a
1f
1X
1Q
0f
#600000
1&
1'
1(
0#
0"
0!
0$
0*
1M
1S
1]
0U
0J
0@
0Z
0>
0?
11
1N
1^
0K
0A
0[
#610000
1*
1>
1?
01
1_
0\
0V
1T
1O
0L
0B
0e
0I
1d
1c
0a
1W
1P
1H
0<
08
0+
0,
0X
0Q
#620000
1#
1"
1!
1$
0*
1U
1J
1@
1Z
0>
0?
11
1K
1A
1[
#630000
1*
1>
1?
01
1\
1V
1L
1B
1e
0b
0Y
0R
1I
0`
1X
1Q
0P
0H
1<
0;
0:
09
18
1+
0/
0.
0-
1,
1a
0W
0Q
0c
0a
0X
0d
1f
#640000
0)
0&
0'
0(
0#
0"
0!
0$
0*
0E
0M
0S
0]
0U
0J
0@
0Z
0>
0?
11
0F
0N
0^
0K
0A
0[
#650000
1*
1>
1?
01
0_
0\
0V
0T
0O
0L
0G
0B
1g
0e
0I
1=
0<
08
10
0+
0,
#660000
1#
1"
1!
1$
0*
1U
1J
1@
1Z
0>
0?
11
1K
1A
1[
#670000
1*
1>
1?
01
1\
1V
1L
1B
1`
1X
1Q
1H
1a
0f
#680000
1%
1&
1(
0#
0"
0!
0$
0*
1C
1M
1]
0U
0J
0@
0Z
0>
0?
11
1N
1^
0K
0A
0[
#690000
1*
1>
1?
01
1_
0\
0V
1O
0L
1D
0B
0g
1b
1Y
1R
1I
1d
0X
1W
1P
0=
1;
1:
19
18
00
1/
1.
1-
1,
1c
0a
1X
0Q
#700000
1#
1"
1!
1$
0*
1U
1J
1@
1Z
0>
0?
11
1K
1A
1[
#710000
1*
1>
1?
01
1\
1V
1L
1B
1e
0b
0R
0`
0c
1a
0X
1Q
0P
0H
1<
0;
09
1+
0/
0-
0a
0d
0W
0Q
1f
1X
0f
#720000
1)
0%
0&
0(
0#
0"
0!
0$
0*
1E
0C
0M
0]
0U
0J
0@
0Z
0>
0?
11
1F
0N
0^
0K
0A
0[
#730000
1*
1>
1?
01
0_
0\
0V
0O
0L
1G
0D
0B
0e
0I
0X
1P
1H
0<
08
0+
0,
1W
1Q
1c
1a
1X
1d
#740000
1#
1"
1!
1$
0*
1U
1J
1@
1Z
0>
0?
11
1K
1A
1[
#750000
1*
1>
1?
01
1\
1V
1L
1B
1e
1b
1R
1I
0d
1`
0c
0a
0X
0W
0Q
0P
0H
1<
1;
19
18
1+
1/
1-
1,
1a
1f
1X
1Q
0f
#760000
1%
1&
1(
0#
0"
0!
0$
0*
1C
1M
1]
0U
0J
0@
0Z
0>
0?
11
1N
1^
0K
0A
0[
#770000
1*
1>
1?
01
1_
0\
0V
1O
0L
1D
0B
0e
0I
1d
0X
1W
1P
0<
08
0+
0,
1c
0a
1X
0Q
#780000
1#
1"
1!
1$
0*
1U
1J
1@
1Z
0>
0?
11
1K
1A
1[
#790000
1*
1>
1?
01
1\
1V
1L
1B
1e
0b
0R
0`
0c
1a
0X
1Q
1H
1<
0;
09
1+
0/
0-
0a
0d
#800000
0)
0%
0&
0(
0#
0"
0!
0$
0*
0E
0C
0M
0]
0U
0J
0@
0Z
0>
0?
11
0F
0N
0^
0K
0A
0[
#810000
1*
1>
1?
01
0_
0\
0V
0O
0L
0G
0D
0B
0e
0Y
1R
1I
1c
1a
1X
0P
0H
0<
0:
19
18
0+
0.
1-
1,
1d
0W
0Q
0c
0a
0X
0d
1f
#820000
1!
1$
0*
1@
1Z
0>
0?
11
1A
1[
#830000
1*
1>
1?
01
1\
1B
1g
0R
0I
1`
1H
1=
09
08
10
0-
0,
1a
0f
#840000
1'
1%
1&
0!
0$
0*
1S
1C
1M
0@
0Z
0>
0?
11
1N
0A
0[
#850000
1*
1>
1?
01
0\
1T
1O
1D
0B
0g
1b
1I
0`
1c
0a
1X
1W
1Q
1P
0=
1;
18
00
1/
1,
1a
1d
0X
0Q
#860000
1!
1$
0*
1@
1Z
0>
0?
11
1A
1[
#870000
1*
1>
1?
01
1\
1B
1e
0d
1`
0P
0H
1<
1+
0a
1Q
#880000
1)
0'
0%
0&
0!
0$
0*
1E
0S
0C
0M
0@
0Z
0>
0?
11
1F
0N
0A
0[
#890000
1*
1>
1?
01
0\
0T
0O
1G
0D
0B
0e
0b
1R
0I
1d
0`
1X
0W
0Q
1P
1H
0<
0;
19
08
0+
0/
1-
0,
0c
0X
1W
1Q
0d
1c
1a
1X
1d
#900000
1!
1$
0*
1@
1Z
0>
0?
11
1A
1[
#910000
1*
1>
1?
01
1\
1B
1e
1b
1Y
1I
0d
1`
0P
0H
1<
1;
1:
18
1+
1/
1.
1,
0a
0W
0Q
0c
1a
0X
#920000
1'
1%
1&
0!
0$
0*
1S
1C
1M
0@
0Z
0>
0?
11
1N
0A
0[
#930000
1*
1>
1?
01
0\
1T
1O
1D
0B
0e
0Y
0R
0I
0`
1c
0a
1X
1W
1Q
1P
0<
0:
09
08
0+
0.
0-
0,
1a
1d
0X
0Q
#940000
1!
1$
0*
1@
1Z
0>
0?
11
1A
1[
#950000
1*
1>
1?
01
1\
1B
1e
0d
1`
1H
1<
1+
0a
#960000
0)
0'
0%
0&
0!
0$
0*
0E
0S
0C
0M
0@
0Z
0>
0?
11
0F
0N
0A
0[
#970000
1*
1>
1?
01
0\
0T
0O
0G
0D
0B
0e
0b
1I
1d
0`
1X
1Q
0P
0H
0<
0;
18
0+
0/
1,
1a
0W
0Q
0c
0a
0X
0d
1f
#980000
1#
1"
1!
1$
0*
1U
1J
1@
1Z
0>
0?
11
1K
1A
1[
#990000
1*
1>
1?
01
1\
1V
1L
1B
1g
0I
1`
1X
1Q
1H
1=
08
10
0,
1a
0f
