ParteD2/simulation/qsim/MaquinaEst2.msim.vcd
$comment
	File created using the following command:
		vcd file MaquinaEst2.msim.vcd -direction
$end
$date
	Wed Nov 06 18:12:02 2024
$end
$version
	ModelSim Version 10.1d
$end
$timescale
	1ps
$end
$scope module MaquinaEst2_vlg_vec_tst $end
$var reg 1 ! clk $end
$var reg 1 " reset $end
$var reg 1 # x $end
$var wire 1 $ z $end
$var wire 1 % sampler $end
$scope module i1 $end
$var wire 1 & gnd $end
$var wire 1 ' vcc $end
$var wire 1 ( unknown $end
$var tri1 1 ) devclrn $end
$var tri1 1 * devpor $end
$var tri1 1 + devoe $end
$var wire 1 , clk~input_o $end
$var wire 1 - clk~inputclkctrl_outclk $end
$var wire 1 . z~output_o $end
$var wire 1 / state.state_bit_1~0_combout $end
$var wire 1 0 reset~input_o $end
$var wire 1 1 reset~inputclkctrl_outclk $end
$var wire 1 2 state.state_bit_1~q $end
$var wire 1 3 state.state_bit_0~0_combout $end
$var wire 1 4 state.state_bit_0~q $end
$var wire 1 5 x~input_o $end
$var wire 1 6 z~1_combout $end
$upscope $end
$upscope $end
$enddefinitions $end
#0
$dumpvars
0!
1"
0#
0$
x%
0&
1'
x(
1)
1*
1+
0,
0-
0.
0/
10
11
02
03
04
05
06
$end
#20000
1!
1,
1-
0%
#40000
0!
0,
0-
1%
#50000
0"
00
01
0%
#60000
1!
1,
1-
1%
#80000
0!
0,
0-
0%
#90000
1#
15
1%
13
#100000
1!
1,
1-
0%
14
03
1/
#120000
0!
0,
0-
1%
#130000
0#
05
0%
0/
#140000
1!
1,
1-
1%
04
#160000
0!
0,
0-
0%
#170000
1#
15
1%
13
#180000
1!
1,
1-
0%
14
03
1/
#200000
0!
0,
0-
1%
#220000
1!
1,
1-
0%
04
12
13
#240000
0!
0,
0-
1%
#250000
0#
05
0%
03
0/
#260000
1!
1,
1-
1%
02
#280000
0!
0,
0-
0%
#290000
1#
15
1%
13
#300000
1!
1,
1-
0%
14
03
1/
#320000
0!
0,
0-
1%
#340000
1!
1,
1-
0%
04
12
13
#360000
0!
0,
0-
1%
#380000
1!
1,
1-
0%
14
16
1.
1$
#400000
0!
0,
0-
1%
#410000
0#
05
0%
03
0/
06
0.
0$
#420000
1!
1,
1-
1%
04
02
#440000
0!
0,
0-
0%
#450000
1#
15
1%
13
#460000
1!
1,
1-
0%
14
03
1/
#480000
0!
0,
0-
1%
#500000
1!
1,
1-
0%
04
12
13
#520000
0!
0,
0-
1%
#540000
1!
1,
1-
0%
14
16
1.
1$
#560000
0#
0!
05
0,
0-
1%
03
0/
06
0.
0$
#570000
1#
15
0%
13
1/
16
1.
1$
#580000
1!
1,
1-
1%
#590000
0#
05
0%
03
0/
06
0.
0$
#600000
0!
1#
0,
15
0-
1%
13
1/
16
1.
1$
#610000
0#
05
0%
03
0/
06
0.
0$
#620000
1!
1,
1-
1%
04
02
#640000
0!
0,
0-
0%
#650000
1#
15
1%
13
#660000
1!
1,
1-
0%
14
03
1/
#680000
0!
0,
0-
1%
#700000
1!
1,
1-
0%
04
12
13
#720000
0!
0,
0-
1%
#740000
1!
1,
1-
0%
14
16
1.
1$
#760000
0!
0,
0-
1%
#780000
1"
1!
10
1,
11
1-
0%
02
04
0/
06
0.
0$
#800000
0!
0,
0-
1%
#820000
1!
1,
1-
0%
#840000
0!
0,
0-
1%
#860000
0"
1!
00
1,
01
1-
0%
#880000
0!
0,
0-
1%
#900000
1!
1,
1-
0%
14
03
1/
#920000
0!
0,
0-
1%
#940000
1!
1,
1-
0%
04
12
13
#960000
0!
0,
0-
1%
#980000
1!
1,
1-
0%
14
16
1.
1$
