TESTParteC/simulation/qsim/Sumador4Bit.msim.vcd
$comment
	File created using the following command:
		vcd file Sumador4Bit.msim.vcd -direction
$end
$date
	Fri Nov 01 21:08:20 2024
$end
$version
	ModelSim Version 10.1d
$end
$timescale
	1ps
$end
$scope module SumadorDefBloq_vlg_vec_tst $end
$var reg 1 ! a1 $end
$var reg 1 " a2 $end
$var reg 1 # a3 $end
$var reg 1 $ a4 $end
$var reg 1 % b1 $end
$var reg 1 & b2 $end
$var reg 1 ' b3 $end
$var reg 1 ( b4 $end
$var reg 1 ) Cin1 $end
$var reg 1 * Cin2 $end
$var reg 1 + Cin3 $end
$var reg 1 , Cin4 $end
$var reg 1 - clk $end
$var wire 1 . Cout1 $end
$var wire 1 / Cout2 $end
$var wire 1 0 Cout3 $end
$var wire 1 1 Cout4 $end
$var wire 1 2 res1 $end
$var wire 1 3 res2 $end
$var wire 1 4 res3 $end
$var wire 1 5 res4 $end
$var wire 1 6 sampler $end
$scope module i1 $end
$var wire 1 7 gnd $end
$var wire 1 8 vcc $end
$var wire 1 9 unknown $end
$var tri1 1 : devclrn $end
$var tri1 1 ; devpor $end
$var tri1 1 < devoe $end
$var wire 1 = Cout1~output_o $end
$var wire 1 > res1~output_o $end
$var wire 1 ? Cout2~output_o $end
$var wire 1 @ res2~output_o $end
$var wire 1 A res3~output_o $end
$var wire 1 B Cout3~output_o $end
$var wire 1 C Cout4~output_o $end
$var wire 1 D res4~output_o $end
$var wire 1 E clk~input_o $end
$var wire 1 F clk~inputclkctrl_outclk $end
$var wire 1 G Cin1~input_o $end
$var wire 1 H b2v_inst13|Q~feeder_combout $end
$var wire 1 I b2v_inst13|Q~q $end
$var wire 1 J b1~input_o $end
$var wire 1 K b2v_inst12|Q~feeder_combout $end
$var wire 1 L b2v_inst12|Q~q $end
$var wire 1 M a1~input_o $end
$var wire 1 N b2v_inst11|Q~feeder_combout $end
$var wire 1 O b2v_inst11|Q~q $end
$var wire 1 P b2v_inst1|cout~0_combout $end
$var wire 1 Q b2v_inst15|Q~q $end
$var wire 1 R b2v_inst1|res~0_combout $end
$var wire 1 S b2v_inst14|Q~q $end
$var wire 1 T Cin2~input_o $end
$var wire 1 U b2v_inst23|Q~feeder_combout $end
$var wire 1 V b2v_inst23|Q~q $end
$var wire 1 W b2~input_o $end
$var wire 1 X b2v_inst22|Q~feeder_combout $end
$var wire 1 Y b2v_inst22|Q~q $end
$var wire 1 Z a2~input_o $end
$var wire 1 [ b2v_inst21|Q~feeder_combout $end
$var wire 1 \ b2v_inst21|Q~q $end
$var wire 1 ] b2v_inst2|cout~0_combout $end
$var wire 1 ^ b2v_inst25|Q~q $end
$var wire 1 _ b2v_inst2|res~0_combout $end
$var wire 1 ` b2v_inst24|Q~q $end
$var wire 1 a a3~input_o $end
$var wire 1 b b2v_inst31|Q~feeder_combout $end
$var wire 1 c b2v_inst31|Q~q $end
$var wire 1 d b3~input_o $end
$var wire 1 e b2v_inst32|Q~feeder_combout $end
$var wire 1 f b2v_inst32|Q~q $end
$var wire 1 g Cin3~input_o $end
$var wire 1 h b2v_inst33|Q~feeder_combout $end
$var wire 1 i b2v_inst33|Q~q $end
$var wire 1 j b2v_inst3|res~0_combout $end
$var wire 1 k b2v_inst34|Q~q $end
$var wire 1 l b2v_inst3|cout~0_combout $end
$var wire 1 m b2v_inst35|Q~q $end
$var wire 1 n Cin4~input_o $end
$var wire 1 o b2v_inst43|Q~feeder_combout $end
$var wire 1 p b2v_inst43|Q~q $end
$var wire 1 q b4~input_o $end
$var wire 1 r b2v_inst42|Q~q $end
$var wire 1 s a4~input_o $end
$var wire 1 t b2v_inst41|Q~feeder_combout $end
$var wire 1 u b2v_inst41|Q~q $end
$var wire 1 v b2v_inst4|cout~0_combout $end
$var wire 1 w b2v_inst45|Q~q $end
$var wire 1 x b2v_inst4|res~0_combout $end
$var wire 1 y b2v_inst44|Q~q $end
$upscope $end
$upscope $end
$enddefinitions $end
#0
$dumpvars
0!
0"
0#
0$
0%
0&
0'
0(
0)
0*
0+
0,
0-
0.
0/
00
01
02
03
04
05
x6
07
18
x9
1:
1;
1<
0=
0>
0?
0@
0A
0B
0C
0D
0E
0F
0G
0H
0I
0J
0K
0L
0M
0N
0O
0P
0Q
0R
0S
0T
0U
0V
0W
0X
0Y
0Z
0[
0\
0]
0^
0_
0`
0a
0b
0c
0d
0e
0f
0g
0h
0i
0j
0k
0l
0m
0n
0o
0p
0q
0r
0s
0t
0u
0v
0w
0x
0y
$end
#70000
1-
1E
1F
06
#80000
1!
1"
1#
1$
0-
1M
1Z
1a
1s
0E
0F
16
1N
1[
1b
1t
#90000
1-
1E
1F
06
1u
1c
1\
1O
1x
1j
1_
1R
#100000
0!
0"
0#
0$
0-
0M
0Z
0a
0s
0E
0F
16
0N
0[
0b
0t
#110000
1-
1E
1F
06
0u
0c
0\
0O
1y
1k
1`
1S
0x
0j
0_
0R
1D
1A
1@
1>
15
14
13
12
#120000
1%
1&
1'
1(
1!
1"
1#
1$
0-
1J
1W
1d
1q
1M
1Z
1a
1s
0E
0F
16
1K
1X
1e
1N
1[
1b
1t
#130000
1-
1E
1F
06
1u
1r
1f
1c
1\
1Y
1O
1L
0y
0k
0`
0S
1v
1l
1]
1P
0D
0A
0@
0>
05
04
03
02
#140000
0!
0"
0#
0$
0-
0M
0Z
0a
0s
0E
0F
16
0N
0[
0b
0t
#150000
1-
1E
1F
06
0u
0c
0\
0O
1w
1m
1^
1Q
1x
0v
0l
1j
1_
0]
1R
0P
1C
1B
1?
1=
11
10
1/
1.
#160000
1)
1*
1+
1,
0%
0&
0'
0(
1!
1"
1#
1$
0-
1G
1T
1g
1n
0J
0W
0d
0q
1M
1Z
1a
1s
0E
0F
16
1H
1U
1h
1o
0K
0X
0e
1N
1[
1b
1t
#170000
1-
1E
1F
06
1u
0r
1p
1i
0f
1c
1\
0Y
1V
1O
0L
1I
1y
0w
0m
1k
1`
0^
1S
0Q
0x
1v
1l
0j
0_
1]
0R
1P
1D
0C
0B
1A
1@
0?
1>
0=
15
01
00
14
13
0/
12
0.
#180000
0!
0"
0#
0$
0-
0M
0Z
0a
0s
0E
0F
16
0N
0[
0b
0t
#190000
1-
1E
1F
06
0u
0c
0\
0O
0y
1w
1m
0k
0`
1^
0S
1Q
1x
0v
0l
1j
1_
0]
1R
0P
0D
1C
1B
0A
0@
1?
0>
1=
05
11
10
04
03
1/
02
1.
#200000
1%
1&
1'
1(
1!
1"
1#
1$
0-
1J
1W
1d
1q
1M
1Z
1a
1s
0E
0F
16
1K
1X
1e
1N
1[
1b
1t
#210000
1-
1E
1F
06
1u
1r
1f
1c
1\
1Y
1O
1L
1y
0w
0m
1k
1`
0^
1S
0Q
1v
1l
1]
1P
1D
0C
0B
1A
1@
0?
1>
0=
15
01
00
14
13
0/
12
0.
#220000
0!
0"
0#
0$
0-
0M
0Z
0a
0s
0E
0F
16
0N
0[
0b
0t
#230000
1-
1E
1F
06
0u
0c
0\
0O
1w
1m
1^
1Q
0x
0j
0_
0R
1C
1B
1?
1=
11
10
1/
1.
#240000
0)
0*
0+
0,
0%
0&
0'
0(
1!
1"
1#
1$
0-
0G
0T
0g
0n
0J
0W
0d
0q
1M
1Z
1a
1s
0E
0F
16
0H
0U
0h
0o
0K
0X
0e
1N
1[
1b
1t
#250000
1-
1E
1F
06
1u
0r
0p
0i
0f
1c
1\
0Y
0V
1O
0L
0I
0y
0k
0`
0S
1x
0v
0l
1j
1_
0]
1R
0P
0D
0A
0@
0>
05
04
03
02
#260000
0!
0"
0#
0$
0-
0M
0Z
0a
0s
0E
0F
16
0N
0[
0b
0t
#270000
1-
1E
1F
06
0u
0c
0\
0O
1y
0w
0m
1k
1`
0^
1S
0Q
0x
0j
0_
0R
1D
0C
0B
1A
1@
0?
1>
0=
15
01
00
14
13
0/
12
0.
#280000
1%
1&
1'
1(
1!
1"
1#
1$
0-
1J
1W
1d
1q
1M
1Z
1a
1s
0E
0F
16
1K
1X
1e
1N
1[
1b
1t
#290000
1-
1E
1F
06
1u
1r
1f
1c
1\
1Y
1O
1L
0y
0k
0`
0S
1v
1l
1]
1P
0D
0A
0@
0>
05
04
03
02
#300000
0!
0"
0#
0$
0-
0M
0Z
0a
0s
0E
0F
16
0N
0[
0b
0t
#310000
1-
1E
1F
06
0u
0c
0\
0O
1w
1m
1^
1Q
1x
0v
0l
1j
1_
0]
1R
0P
1C
1B
1?
1=
11
10
1/
1.
#320000
1)
1*
1+
1,
0%
0&
0'
0(
1!
1"
1#
1$
0-
1G
1T
1g
1n
0J
0W
0d
0q
1M
1Z
1a
1s
0E
0F
16
1H
1U
1h
1o
0K
0X
0e
1N
1[
1b
1t
#330000
1-
1E
1F
06
1u
0r
1p
1i
0f
1c
1\
0Y
1V
1O
0L
1I
1y
0w
0m
1k
1`
0^
1S
0Q
0x
1v
1l
0j
0_
1]
0R
1P
1D
0C
0B
1A
1@
0?
1>
0=
15
01
00
14
13
0/
12
0.
#340000
0!
0"
0#
0$
0-
0M
0Z
0a
0s
0E
0F
16
0N
0[
0b
0t
#350000
1-
1E
1F
06
0u
0c
0\
0O
0y
1w
1m
0k
0`
1^
0S
1Q
1x
0v
0l
1j
1_
0]
1R
0P
0D
1C
1B
0A
0@
1?
0>
1=
05
11
10
04
03
1/
02
1.
#360000
1%
1&
1'
1(
1!
1"
1#
1$
0-
1J
1W
1d
1q
1M
1Z
1a
1s
0E
0F
16
1K
1X
1e
1N
1[
1b
1t
#370000
1-
1E
1F
06
1u
1r
1f
1c
1\
1Y
1O
1L
1y
0w
0m
1k
1`
0^
1S
0Q
1v
1l
1]
1P
1D
0C
0B
1A
1@
0?
1>
0=
15
01
00
14
13
0/
12
0.
#380000
0!
0"
0#
0$
0-
0M
0Z
0a
0s
0E
0F
16
0N
0[
0b
0t
#390000
1-
1E
1F
06
0u
0c
0\
0O
1w
1m
1^
1Q
0x
0j
0_
0R
1C
1B
1?
1=
11
10
1/
1.
#400000
0)
0*
0+
0,
0%
0&
0'
0(
1!
1"
1#
1$
0-
0G
0T
0g
0n
0J
0W
0d
0q
1M
1Z
1a
1s
0E
0F
16
0H
0U
0h
0o
0K
0X
0e
1N
1[
1b
1t
#410000
1-
1E
1F
06
1u
0r
0p
0i
0f
1c
1\
0Y
0V
1O
0L
0I
0y
0k
0`
0S
1x
0v
0l
1j
1_
0]
1R
0P
0D
0A
0@
0>
05
04
03
02
#420000
0!
0"
0#
0$
0-
0M
0Z
0a
0s
0E
0F
16
0N
0[
0b
0t
#430000
1-
1E
1F
06
0u
0c
0\
0O
1y
0w
0m
1k
1`
0^
1S
0Q
0x
0j
0_
0R
1D
0C
0B
1A
1@
0?
1>
0=
15
01
00
14
13
0/
12
0.
#440000
1%
1&
1'
1(
1!
1"
1#
1$
0-
1J
1W
1d
1q
1M
1Z
1a
1s
0E
0F
16
1K
1X
1e
1N
1[
1b
1t
#450000
1-
1E
1F
06
1u
1r
1f
1c
1\
1Y
1O
1L
0y
0k
0`
0S
1v
1l
1]
1P
0D
0A
0@
0>
05
04
03
02
#460000
0!
0"
0#
0$
0-
0M
0Z
0a
0s
0E
0F
16
0N
0[
0b
0t
#470000
1-
1E
1F
06
0u
0c
0\
0O
1w
1m
1^
1Q
1x
0v
0l
1j
1_
0]
1R
0P
1C
1B
1?
1=
11
10
1/
1.
#480000
1)
1*
1+
1,
0%
0&
0'
0(
1!
1"
1#
1$
0-
1G
1T
1g
1n
0J
0W
0d
0q
1M
1Z
1a
1s
0E
0F
16
1H
1U
1h
1o
0K
0X
0e
1N
1[
1b
1t
#490000
1-
1E
1F
06
1u
0r
1p
1i
0f
1c
1\
0Y
1V
1O
0L
1I
1y
0w
0m
1k
1`
0^
1S
0Q
0x
1v
1l
0j
0_
1]
0R
1P
1D
0C
0B
1A
1@
0?
1>
0=
15
01
00
14
13
0/
12
0.
#500000
0!
0"
0#
0$
0-
0M
0Z
0a
0s
0E
0F
16
0N
0[
0b
0t
#510000
1-
1E
1F
06
0u
0c
0\
0O
0y
1w
1m
0k
0`
1^
0S
1Q
1x
0v
0l
1j
1_
0]
1R
0P
0D
1C
1B
0A
0@
1?
0>
1=
05
11
10
04
03
1/
02
1.
#520000
1%
1&
1'
1(
1!
1"
1#
1$
0-
1J
1W
1d
1q
1M
1Z
1a
1s
0E
0F
16
1K
1X
1e
1N
1[
1b
1t
#530000
1-
1E
1F
06
1u
1r
1f
1c
1\
1Y
1O
1L
1y
0w
0m
1k
1`
0^
1S
0Q
1v
1l
1]
1P
1D
0C
0B
1A
1@
0?
1>
0=
15
01
00
14
13
0/
12
0.
#540000
0!
0"
0#
0$
0-
0M
0Z
0a
0s
0E
0F
16
0N
0[
0b
0t
#550000
1-
1E
1F
06
0u
0c
0\
0O
1w
1m
1^
1Q
0x
0j
0_
0R
1C
1B
1?
1=
11
10
1/
1.
#560000
0)
0*
0+
0,
0%
0&
0'
0(
1!
1"
1#
1$
0-
0G
0T
0g
0n
0J
0W
0d
0q
1M
1Z
1a
1s
0E
0F
16
0H
0U
0h
0o
0K
0X
0e
1N
1[
1b
1t
#570000
1-
1E
1F
06
1u
0r
0p
0i
0f
1c
1\
0Y
0V
1O
0L
0I
0y
0k
0`
0S
1x
0v
0l
1j
1_
0]
1R
0P
0D
0A
0@
0>
05
04
03
02
#580000
0!
0"
0#
0$
0-
0M
0Z
0a
0s
0E
0F
16
0N
0[
0b
0t
#590000
1-
1E
1F
06
0u
0c
0\
0O
1y
0w
0m
1k
1`
0^
1S
0Q
0x
0j
0_
0R
1D
0C
0B
1A
1@
0?
1>
0=
15
01
00
14
13
0/
12
0.
#600000
1%
1&
1'
1(
1!
1"
1#
1$
0-
1J
1W
1d
1q
1M
1Z
1a
1s
0E
0F
16
1K
1X
1e
1N
1[
1b
1t
#610000
1-
1E
1F
06
1u
1r
1f
1c
1\
1Y
1O
1L
0y
0k
0`
0S
1v
1l
1]
1P
0D
0A
0@
0>
05
04
03
02
#620000
0!
0"
0#
0$
0-
0M
0Z
0a
0s
0E
0F
16
0N
0[
0b
0t
#630000
1-
1E
1F
06
0u
0c
0\
0O
1w
1m
1^
1Q
1x
0v
0l
1j
1_
0]
1R
0P
1C
1B
1?
1=
11
10
1/
1.
#640000
1)
1*
1+
1,
0%
0&
0'
0(
1!
1"
1#
1$
0-
1G
1T
1g
1n
0J
0W
0d
0q
1M
1Z
1a
1s
0E
0F
16
1H
1U
1h
1o
0K
0X
0e
1N
1[
1b
1t
#650000
1-
1E
1F
06
1u
0r
1p
1i
0f
1c
1\
0Y
1V
1O
0L
1I
1y
0w
0m
1k
1`
0^
1S
0Q
0x
1v
1l
0j
0_
1]
0R
1P
1D
0C
0B
1A
1@
0?
1>
0=
15
01
00
14
13
0/
12
0.
#660000
0!
0"
0#
0$
0-
0M
0Z
0a
0s
0E
0F
16
0N
0[
0b
0t
#670000
1-
1E
1F
06
0u
0c
0\
0O
0y
1w
1m
0k
0`
1^
0S
1Q
1x
0v
0l
1j
1_
0]
1R
0P
0D
1C
1B
0A
0@
1?
0>
1=
05
11
10
04
03
1/
02
1.
#680000
1%
1&
1'
1(
1!
1"
1#
1$
0-
1J
1W
1d
1q
1M
1Z
1a
1s
0E
0F
16
1K
1X
1e
1N
1[
1b
1t
#690000
1-
1E
1F
06
1u
1r
1f
1c
1\
1Y
1O
1L
1y
0w
0m
1k
1`
0^
1S
0Q
1v
1l
1]
1P
1D
0C
0B
1A
1@
0?
1>
0=
15
01
00
14
13
0/
12
0.
#700000
0!
0"
0#
0$
0-
0M
0Z
0a
0s
0E
0F
16
0N
0[
0b
0t
#710000
1-
1E
1F
06
0u
0c
0\
0O
1w
1m
1^
1Q
0x
0j
0_
0R
1C
1B
1?
1=
11
10
1/
1.
#720000
0)
0*
0+
0,
0%
0&
0'
0(
1!
1"
1#
1$
0-
0G
0T
0g
0n
0J
0W
0d
0q
1M
1Z
1a
1s
0E
0F
16
0H
0U
0h
0o
0K
0X
0e
1N
1[
1b
1t
#730000
1-
1E
1F
06
1u
0r
0p
0i
0f
1c
1\
0Y
0V
1O
0L
0I
0y
0k
0`
0S
1x
0v
0l
1j
1_
0]
1R
0P
0D
0A
0@
0>
05
04
03
02
#740000
0!
0"
0#
0$
0-
0M
0Z
0a
0s
0E
0F
16
0N
0[
0b
0t
#750000
1-
1E
1F
06
0u
0c
0\
0O
1y
0w
0m
1k
1`
0^
1S
0Q
0x
0j
0_
0R
1D
0C
0B
1A
1@
0?
1>
0=
15
01
00
14
13
0/
12
0.
#760000
1%
1&
1'
1(
1!
1"
1#
1$
0-
1J
1W
1d
1q
1M
1Z
1a
1s
0E
0F
16
1K
1X
1e
1N
1[
1b
1t
#770000
1-
1E
1F
06
1u
1r
1f
1c
1\
1Y
1O
1L
0y
0k
0`
0S
1v
1l
1]
1P
0D
0A
0@
0>
05
04
03
02
#780000
0!
0"
0#
0$
0-
0M
0Z
0a
0s
0E
0F
16
0N
0[
0b
0t
#790000
1-
1E
1F
06
0u
0c
0\
0O
1w
1m
1^
1Q
1x
0v
0l
1j
1_
0]
1R
0P
1C
1B
1?
1=
11
10
1/
1.
#800000
1)
1*
1+
1,
0%
0&
0'
0(
1!
1"
1#
1$
0-
1G
1T
1g
1n
0J
0W
0d
0q
1M
1Z
1a
1s
0E
0F
16
1H
1U
1h
1o
0K
0X
0e
1N
1[
1b
1t
#810000
1-
1E
1F
06
1u
0r
1p
1i
0f
1c
1\
0Y
1V
1O
0L
1I
1y
0w
0m
1k
1`
0^
1S
0Q
0x
1v
1l
0j
0_
1]
0R
1P
1D
0C
0B
1A
1@
0?
1>
0=
15
01
00
14
13
0/
12
0.
#820000
0!
0"
0#
0$
0-
0M
0Z
0a
0s
0E
0F
16
0N
0[
0b
0t
#830000
1-
1E
1F
06
0u
0c
0\
0O
0y
1w
1m
0k
0`
1^
0S
1Q
1x
0v
0l
1j
1_
0]
1R
0P
0D
1C
1B
0A
0@
1?
0>
1=
05
11
10
04
03
1/
02
1.
#840000
1%
1&
1'
1(
1!
1"
1#
1$
0-
1J
1W
1d
1q
1M
1Z
1a
1s
0E
0F
16
1K
1X
1e
1N
1[
1b
1t
#850000
1-
1E
1F
06
1u
1r
1f
1c
1\
1Y
1O
1L
1y
0w
0m
1k
1`
0^
1S
0Q
1v
1l
1]
1P
1D
0C
0B
1A
1@
0?
1>
0=
15
01
00
14
13
0/
12
0.
#860000
0!
0"
0#
0$
0-
0M
0Z
0a
0s
0E
0F
16
0N
0[
0b
0t
#870000
1-
1E
1F
06
0u
0c
0\
0O
1w
1m
1^
1Q
0x
0j
0_
0R
1C
1B
1?
1=
11
10
1/
1.
#880000
0)
0*
0+
0,
0%
0&
0'
0(
1!
1"
1#
1$
0-
0G
0T
0g
0n
0J
0W
0d
0q
1M
1Z
1a
1s
0E
0F
16
0H
0U
0h
0o
0K
0X
0e
1N
1[
1b
1t
#890000
1-
1E
1F
06
1u
0r
0p
0i
0f
1c
1\
0Y
0V
1O
0L
0I
0y
0k
0`
0S
1x
0v
0l
1j
1_
0]
1R
0P
0D
0A
0@
0>
05
04
03
02
#900000
0!
0"
0#
0$
0-
0M
0Z
0a
0s
0E
0F
16
0N
0[
0b
0t
