ParteD/simulation/qsim/MaquinaEstado.msim.vcd
$comment
	File created using the following command:
		vcd file MaquinaEstado.msim.vcd -direction
$end
$date
	Wed Nov 06 17:47:42 2024
$end
$version
	ModelSim Version 10.1d
$end
$timescale
	1ps
$end
$scope module MaquinaEstado_vlg_vec_tst $end
$var reg 1 ! clock $end
$var reg 1 " reset $end
$var reg 1 # x $end
$var wire 1 $ Z $end
$var wire 1 % sampler $end
$scope module i1 $end
$var wire 1 & gnd $end
$var wire 1 ' vcc $end
$var wire 1 ( unknown $end
$var tri1 1 ) devclrn $end
$var tri1 1 * devpor $end
$var tri1 1 + devoe $end
$var wire 1 , clock~input_o $end
$var wire 1 - clock~inputclkctrl_outclk $end
$var wire 1 . Z~output_o $end
$var wire 1 / x~input_o $end
$var wire 1 0 fstate.state_bit_1~0_combout $end
$var wire 1 1 fstate.state_bit_1~q $end
$var wire 1 2 fstate.state_bit_0~0_combout $end
$var wire 1 3 fstate.state_bit_0~q $end
$var wire 1 4 reset~input_o $end
$var wire 1 5 Z~1_combout $end
$upscope $end
$upscope $end
$enddefinitions $end
#0
$dumpvars
0!
1"
0#
0$
x%
0&
1'
x(
1)
1*
1+
0,
0-
0.
0/
00
01
02
03
14
05
$end
#20000
1!
1,
1-
0%
#40000
0!
0,
0-
1%
#50000
0"
04
0%
#60000
1!
1,
1-
1%
#80000
0!
0,
0-
0%
#90000
1#
1/
1%
12
#100000
1!
1,
1-
0%
13
02
10
#120000
0!
0,
0-
1%
#130000
0#
0/
0%
00
#140000
1!
1,
1-
1%
03
#160000
0!
0,
0-
0%
#170000
1#
1/
1%
12
#180000
1!
1,
1-
0%
13
02
10
#200000
0!
0,
0-
1%
#220000
1!
1,
1-
0%
03
11
12
#240000
0!
0,
0-
1%
#250000
0#
0/
0%
02
00
#260000
1!
1,
1-
1%
01
#280000
0!
0,
0-
0%
#290000
1#
1/
1%
12
#300000
1!
1,
1-
0%
13
02
10
#320000
0!
0,
0-
1%
#340000
1!
1,
1-
0%
03
11
12
#360000
0!
0,
0-
1%
#380000
1!
1,
1-
0%
13
15
1.
1$
#400000
0!
0,
0-
1%
#410000
0#
0/
0%
02
00
05
0.
0$
#420000
1!
1,
1-
1%
03
01
#440000
0!
0,
0-
0%
#450000
1#
1/
1%
12
#460000
1!
1,
1-
0%
13
02
10
#480000
0!
0,
0-
1%
#500000
1!
1,
1-
0%
03
11
12
#520000
0!
0,
0-
1%
#540000
1!
1,
1-
0%
13
15
1.
1$
#560000
0!
0,
0-
1%
#580000
1!
1,
1-
0%
#600000
0!
0,
0-
1%
#610000
0#
0/
0%
02
00
05
0.
0$
#620000
1!
1,
1-
1%
03
01
#640000
0!
0,
0-
0%
#650000
1#
1/
1%
12
#660000
1!
1,
1-
0%
13
02
10
#680000
0!
0,
0-
1%
#700000
1!
1,
1-
0%
03
11
12
#720000
0!
0,
0-
1%
#740000
1!
1,
1-
0%
13
15
1.
1$
#760000
0!
0,
0-
1%
#780000
1!
1,
1-
0%
#800000
0!
0,
0-
1%
#820000
1!
1,
1-
0%
#840000
0!
0,
0-
1%
#850000
0#
0/
0%
02
00
05
0.
0$
#860000
1!
1,
1-
1%
03
01
#880000
0!
0,
0-
0%
#900000
1!
1,
1-
1%
#920000
0!
0,
0-
0%
#940000
1!
1,
1-
1%
#960000
0!
0,
0-
0%
#980000
1!
1,
1-
1%
