ParteB/simulation/qsim/RestadorCompleto.msim.vcd
$comment
	File created using the following command:
		vcd file RestadorCompleto.msim.vcd -direction
$end
$date
	Fri Nov 01 19:22:29 2024
$end
$version
	ModelSim Version 10.1d
$end
$timescale
	1ps
$end
$scope module RestadorCompleto_vlg_vec_tst $end
$var reg 1 ! clk $end
$var reg 1 " in_a $end
$var reg 1 # in_b $end
$var reg 1 $ in_bin $end
$var wire 1 % o_bout $end
$var wire 1 & o_res $end
$var wire 1 ' sampler $end
$scope module i1 $end
$var wire 1 ( gnd $end
$var wire 1 ) vcc $end
$var wire 1 * unknown $end
$var tri1 1 + devclrn $end
$var tri1 1 , devpor $end
$var tri1 1 - devoe $end
$var wire 1 . o_res~output_o $end
$var wire 1 / o_bout~output_o $end
$var wire 1 0 clk~input_o $end
$var wire 1 1 clk~inputclkctrl_outclk $end
$var wire 1 2 in_a~input_o $end
$var wire 1 3 D1|Q~feeder_combout $end
$var wire 1 4 D1|Q~q $end
$var wire 1 5 in_b~input_o $end
$var wire 1 6 D2|Q~feeder_combout $end
$var wire 1 7 D2|Q~q $end
$var wire 1 8 in_bin~input_o $end
$var wire 1 9 D3|Q~feeder_combout $end
$var wire 1 : D3|Q~q $end
$var wire 1 ; res~0_combout $end
$var wire 1 < D4|Q~q $end
$var wire 1 = bout~0_combout $end
$var wire 1 > D5|Q~q $end
$upscope $end
$upscope $end
$enddefinitions $end
#0
$dumpvars
0!
0"
0#
0$
0%
0&
x'
0(
1)
x*
1+
1,
1-
0.
0/
00
01
02
03
04
05
06
07
08
09
0:
0;
0<
0=
0>
$end
#20000
1!
10
11
0'
#40000
0!
00
01
1'
#60000
1!
10
11
0'
#70000
1"
12
1'
13
#75000
1$
18
0'
19
#80000
0!
00
01
1'
#90000
1#
15
0'
16
#100000
1!
10
11
1'
1:
17
14
1=
1;
#105000
0"
02
0'
03
#110000
0$
08
1'
09
#120000
0!
00
01
0'
#125000
0#
05
1'
06
#140000
1!
10
11
0'
0:
07
04
1>
1<
0=
0;
1/
1.
1%
1&
#160000
0!
00
01
1'
#175000
1"
12
0'
13
#180000
1!
10
11
1'
14
0>
0<
1;
0/
0.
0%
0&
#195000
1#
15
0'
16
#200000
0!
00
01
1'
#210000
0"
02
0'
03
#215000
1$
18
1'
19
#220000
1!
10
11
0'
1:
17
04
1<
1=
0;
1.
1&
#240000
0!
00
01
1'
#245000
1"
12
0'
13
#260000
1!
10
11
1'
14
1>
0<
1;
1/
0.
1%
0&
#265000
0#
05
0'
06
#280000
0"
0!
02
00
01
1'
03
#300000
1!
10
11
0'
07
04
1<
1.
1&
#320000
0$
0!
08
00
01
1'
09
#335000
1#
15
0'
16
#340000
1!
10
11
1'
0:
17
#355000
1$
18
0'
19
#360000
0!
00
01
1'
#380000
1!
10
11
0'
1:
0;
#390000
0$
08
1'
09
#400000
0!
00
01
0'
#405000
0#
05
1'
06
#420000
1!
10
11
0'
0:
07
0<
0=
0.
0&
#425000
1$
18
1'
19
#440000
0!
00
01
0'
#455000
1"
12
1'
13
#460000
1!
10
11
0'
1:
14
0>
0/
0%
#480000
0!
00
01
1'
#490000
0"
02
0'
03
#495000
0$
08
1'
09
#500000
1!
10
11
0'
0:
04
#510000
1#
15
1'
16
#520000
0!
00
01
0'
#525000
1"
12
1'
13
#540000
1!
10
11
0'
17
14
#545000
0#
05
1'
06
#560000
0!
00
01
0'
#580000
1!
10
11
1'
07
1;
#595000
0"
02
0'
03
#600000
0!
00
01
1'
#620000
1!
10
11
0'
04
1<
0;
1.
1&
#630000
1"
12
1'
13
#640000
0!
0"
00
02
01
0'
03
