ParteA/simulation/qsim/Parte_A.msim.vcd
$comment
	File created using the following command:
		vcd file Parte_A.msim.vcd -direction
$end
$date
	Mon Oct 28 18:44:48 2024
$end
$version
	ModelSim Version 10.1d
$end
$timescale
	1ps
$end
$scope module Parte_A_vlg_vec_tst $end
$var reg 1 ! SW1 $end
$var reg 1 " SW2 $end
$var reg 1 # SW3 $end
$var wire 1 $ LED $end
$var wire 1 % sampler $end
$scope module i1 $end
$var wire 1 & gnd $end
$var wire 1 ' vcc $end
$var wire 1 ( unknown $end
$var tri1 1 ) devclrn $end
$var tri1 1 * devpor $end
$var tri1 1 + devoe $end
$var wire 1 , LED~output_o $end
$var wire 1 - SW1~input_o $end
$var wire 1 . SW3~input_o $end
$var wire 1 / SW2~input_o $end
$var wire 1 0 LED~0_combout $end
$upscope $end
$upscope $end
$enddefinitions $end
#0
$dumpvars
0!
0"
0#
x$
x%
0&
1'
x(
1)
1*
1+
x,
0-
0.
0/
x0
$end
#3454
00
#6029
0,
0$
#100000
1!
0%
#100779
1-
#104006
10
#106598
1,
1$
#200000
1"
1%
#200786
1/
#203993
00
#206568
0,
0$
#260000
0!
0%
#260884
0-
#264363
10
#266955
1,
1$
#340000
1#
1%
#340769
1.
#420000
0"
0%
#420893
0/
#520000
1!
1%
#520779
1-
#600000
0#
0%
#600874
0.
#700000
1"
1#
1%
#700769
1.
#700786
1/
#703993
00
#706568
0,
0$
#840000
0!
0"
0#
0%
#840874
0.
#840884
0-
#840893
0/
