TESTParteB/simulation/qsim/SumadorCompleto.msim.vcd
$comment
	File created using the following command:
		vcd file SumadorCompleto.msim.vcd -direction
$end
$date
	Thu Nov 07 02:09:05 2024
$end
$version
	ModelSim Version 10.1d
$end
$timescale
	1ps
$end
$scope module SumadorCompleto_vlg_vec_tst $end
$var reg 1 ! clk $end
$var reg 1 " in_a $end
$var reg 1 # in_b $end
$var reg 1 $ in_cin $end
$var wire 1 % o_cout $end
$var wire 1 & o_res $end
$var wire 1 ' sampler $end
$scope module i1 $end
$var wire 1 ( gnd $end
$var wire 1 ) vcc $end
$var wire 1 * unknown $end
$var tri1 1 + devclrn $end
$var tri1 1 , devpor $end
$var tri1 1 - devoe $end
$var wire 1 . D3|Q~q $end
$var wire 1 / in_cin~input_o $end
$var wire 1 0 D3|Q~feeder_combout $end
$var wire 1 1 o_res~output_o $end
$var wire 1 2 o_cout~output_o $end
$var wire 1 3 clk~input_o $end
$var wire 1 4 clk~inputclkctrl_outclk $end
$var wire 1 5 in_b~input_o $end
$var wire 1 6 D2|Q~feeder_combout $end
$var wire 1 7 D2|Q~q $end
$var wire 1 8 in_a~input_o $end
$var wire 1 9 D1|Q~feeder_combout $end
$var wire 1 : D1|Q~q $end
$var wire 1 ; res~0_combout $end
$var wire 1 < D4|Q~q $end
$var wire 1 = cout~0_combout $end
$var wire 1 > D5|Q~q $end
$upscope $end
$upscope $end
$enddefinitions $end
#0
$dumpvars
0!
0"
0#
0$
x%
x&
x'
0(
1)
x*
1+
1,
1-
0.
0/
x0
x1
x2
03
x4
05
x6
07
08
x9
0:
x;
0<
x=
0>
$end
#173
04
#810
0=
#821
0;
#2676
02
0%
#2971
01
0&
#3116
06
#3394
00
#3428
09
#45000
1!
0'
#45819
13
#46006
14
#65000
1"
1$
1'
#65789
18
#65819
1/
#69004
19
#69008
10
#70000
0!
0'
#70924
03
#71097
04
#85000
1#
1'
#85779
15
#88659
16
#90000
0"
0'
#90894
08
#94322
09
#95000
1!
1'
#95819
13
#96006
14
#98392
1.
17
#99090
1=
#115000
1"
0'
#115789
18
#119004
19
#120000
0!
1'
#120924
03
#121097
04
#135000
0#
0'
#135884
05
#139000
06
#140000
0$
1'
#140924
0/
#144318
00
#145000
1!
0'
#145819
13
#146006
14
#148392
0.
07
1:
1>
#149202
1;
#149210
0=
#151042
12
1%
#160000
1#
1'
#160779
15
#163659
16
#165000
1$
0'
#165819
1/
#169008
10
#170000
0!
1'
#170924
03
#171097
04
#185000
0#
0'
#185884
05
#189000
06
#190000
0"
1'
#190894
08
#194322
09
#195000
1!
0'
#195819
13
#196006
14
#198392
1.
0:
1<
0>
#201068
02
0%
#201346
11
1&
#210000
1#
1'
#210779
15
#213659
16
#215000
1"
0'
#215789
18
#219004
19
#220000
0!
1'
#220924
03
#221097
04
#245000
1!
0'
#245819
13
#246006
14
#248392
17
1:
#248942
1=
#260000
0#
1'
#260884
05
#264000
06
#265000
0"
0'
#265894
08
#269322
09
#270000
0!
1'
#270924
03
#271097
04
#285000
1#
0'
#285779
15
#288659
16
#295000
1!
1'
#295819
13
#296006
14
#298392
0:
1>
#298871
0;
#301042
12
1%
#310000
0#
0'
#310884
05
#314000
06
#315000
0$
1'
#315924
0/
#319318
00
#320000
0!
0'
#320924
03
#321097
04
#340000
1"
1'
#340789
18
#344004
19
#345000
1!
0'
#345819
13
#346006
14
#348392
0.
07
1:
0<
#349202
1;
#349210
0=
#351363
01
0&
#360000
1#
1'
#360779
15
#363659
16
#365000
1$
0"
0'
#365819
1/
#365894
08
#369008
10
#369322
09
#370000
0!
1'
#370924
03
#371097
04
#390000
1"
0'
#390789
18
#394004
19
#395000
1!
1'
#395819
13
#396006
14
#398392
1.
17
1<
0>
#398942
1=
#401068
02
0%
#401346
11
1&
#415000
0"
0'
#415894
08
#419322
09
#420000
0!
1'
#420924
03
#421097
04
#445000
1!
0'
#445819
13
#446006
14
#448392
0:
1>
#448871
0;
#451042
12
1%
#465000
0$
1"
1'
#465789
18
#465924
0/
#469004
19
#469318
00
#470000
0!
0'
#470924
03
#471097
04
#490000
1$
0"
1'
#490819
1/
#490894
08
#494008
10
#494322
09
#495000
1!
0'
#495819
13
#496006
14
#498392
0<
#501363
01
0&
#510000
0#
1'
#510884
05
#514000
06
#520000
0!
0'
#520924
03
#521097
04
#540000
0$
1'
#540924
0/
#544318
00
#545000
1!
0'
#545819
13
#546006
14
#548392
0.
07
#549022
0=
#560000
1#
1'
#560779
15
#563659
16
#565000
1"
0'
#565789
18
#569004
19
#570000
0!
1'
#570924
03
#571097
04
#585000
0#
0'
#585884
05
#589000
06
#590000
1$
0"
1'
#590819
1/
#590894
08
#594008
10
#594322
09
#595000
1!
0'
#595819
13
#596006
14
#598392
1.
0>
#599108
1;
#601068
02
0%
#615000
0$
1'
#615924
0/
#619318
00
#620000
0!
0'
#620924
03
#621097
04
#635000
1#
1'
#635779
15
#638659
16
#640000
1$
0'
#640819
1/
#644008
10
#645000
1!
1'
#645819
13
#646006
14
#648392
17
1<
#648934
0;
#648942
1=
#651346
11
1&
#660000
0#
0$
0!
0'
#660884
05
#660924
03
0/
#661097
04
#664000
06
#664318
00
